<?xml version="1.0" encoding="utf-8"?>
<!-- Generator: Adobe Illustrator 21.0.2, SVG Export Plug-In . SVG Version: 6.00 Build 0)  -->
<svg version="1.1" id="Layer_1" xmlns="http://www.w3.org/2000/svg" xmlns:xlink="http://www.w3.org/1999/xlink" x="0px" y="0px"
	 viewBox="0 0 24 24" style="enable-background:new 0 0 24 24;" xml:space="preserve">
<path class="st0" d="M10.5,13.2v-1.4c0.4-0.3,0.9-1,1-2.4c0.4-0.3,0.7-0.9,0.7-1.5c0-0.3-0.1-0.6-0.2-0.9c-0.1-0.1-0.2-0.2-0.2-0.3
	c0.2-0.5,0.5-1.4,0.3-2.3C11.6,3,9.9,2.5,8.5,2.5C7.3,2.5,5.7,2.9,5.2,4c-0.5,0-0.8,0.1-1,0.4C3.6,5,4.1,6,4.4,6.7
	C4.3,6.8,4.2,6.9,4.1,7C3.9,7.2,3.9,7.5,3.9,7.9c0,0.6,0.2,1.2,0.6,1.5c0.1,1.5,0.6,2.1,1,2.4v1.4C3.6,13.9,0,15.5,0,16.5V21
	c0,0.3,0.2,0.5,0.5,0.5h15c0.3,0,0.5-0.2,0.5-0.5v-4.5C16,15.5,12.4,13.9,10.5,13.2z M15,20.5H1v-3.9C1.4,16.2,3.6,15,6.2,14
	c0.2-0.1,0.3-0.3,0.3-0.5v-2c0-0.2-0.1-0.4-0.3-0.5c0,0-0.7-0.3-0.7-2c0-0.3-0.2-0.5-0.4-0.5C4.9,8.4,4.8,8,4.9,7.6
	C4.9,7.5,5,7.5,5,7.5c0.1,0,0.3-0.1,0.4-0.1S5.5,7.1,5.5,7c0-0.2-0.1-0.3-0.2-0.6C4.9,5.4,4.9,5.1,4.9,5c0,0,0.1-0.1,0.5,0
	C5.7,5,5.9,4.9,6,4.6C6.1,4,7.2,3.5,8.5,3.5S10.9,4,11,4.6c0.2,0.7-0.1,1.4-0.3,1.9c-0.1,0.2-0.2,0.4-0.2,0.5c0,0.3,0.3,0.5,0.5,0.5
	c0,0,0.1,0.1,0.1,0.3c0,0.3-0.1,0.6-0.1,0.7c-0.3,0-0.5,0.2-0.5,0.5c0,1.7-0.7,2-0.7,2c-0.2,0.1-0.3,0.3-0.3,0.5v2
	c0,0.2,0.1,0.4,0.3,0.5c2.6,1,4.8,2.2,5.2,2.6V20.5z M20.9,14.7c-0.5-0.2-1-0.3-1.4-0.5v-0.9c0.4-0.2,0.9-0.8,1-2
	C20.8,11,21,10.5,21,9.9c0-0.2,0-0.6-0.2-0.8c0-0.1-0.1-0.2-0.2-0.2c0.2-0.4,0.6-1.2,0.3-2c-0.4-1.1-1.8-1.5-3-1.5
	c-1,0-2.2,0.3-2.8,1.1c-0.4,0-0.7,0.1-0.9,0.3c-0.4,0.5-0.2,1.4,0,1.9c-0.1,0.1-0.2,0.2-0.2,0.3C14,9.3,14,9.6,14,9.9
	c0,0.6,0.2,1.2,0.5,1.5c0.1,1.2,0.6,1.7,1,2V14c0,0.3,0.2,0.5,0.5,0.5s0.5-0.2,0.5-0.5v-1c0-0.2-0.2-0.4-0.4-0.5
	c0,0-0.6-0.2-0.6-1.5c0-0.2-0.2-0.4-0.4-0.5c-0.1-0.2-0.2-0.9-0.1-1c0.3,0,0.5-0.2,0.5-0.5c0-0.1,0-0.3-0.1-0.5
	c-0.2-0.6-0.3-0.9-0.3-1c0,0,0.1,0,0.3,0c0.2,0.1,0.5-0.1,0.6-0.3c0.1-0.4,1-0.8,2-0.8s1.9,0.3,2,0.8c0.2,0.5-0.1,1-0.3,1.3
	c-0.1,0.2-0.2,0.3-0.2,0.5c0,0.3,0.1,0.5,0.4,0.5c0.1,0.2,0.1,0.8,0,1c-0.2,0.1-0.4,0.3-0.4,0.5c0,1.3-0.6,1.5-0.6,1.5
	c-0.2,0.1-0.4,0.3-0.4,0.5v1.5c0,0.2,0.1,0.4,0.3,0.5c0.6,0.2,1.2,0.5,1.8,0.7c0.9,0.3,2.1,0.8,2.4,1v3.9h-5c-0.3,0-0.5,0.2-0.5,0.5
	s0.2,0.5,0.5,0.5h5.5c0.3,0,0.5-0.2,0.5-0.5v-4.5C24,15.8,23.1,15.5,20.9,14.7z"/>
</svg>
