<?xml version="1.0" encoding="utf-8"?>
<!-- Generator: Adobe Illustrator 21.0.2, SVG Export Plug-In . SVG Version: 6.00 Build 0)  -->
<svg version="1.0" id="Layer_1" xmlns="http://www.w3.org/2000/svg" xmlns:xlink="http://www.w3.org/1999/xlink" x="0px" y="0px"
	 viewBox="0 0 24 24" style="enable-background:new 0 0 24 24;" xml:space="preserve">
<path class="st0" d="M12,0C6.6,0,2.5,4.3,2.5,10c0,7.2,8.8,13.6,9.2,13.9C11.8,24,11.9,24,12,24s0.2,0,0.3-0.1
	c0.4-0.3,9.2-6.7,9.2-13.9C21.5,4.3,17.4,0,12,0z M12,22.9C10.5,21.7,3.5,16,3.5,10c0-5.1,3.7-9,8.5-9s8.5,3.9,8.5,9
	C20.5,16,13.5,21.7,12,22.9z M12,4C9,4,6.5,6.5,6.5,9.5S9,15,12,15s5.5-2.5,5.5-5.5S15,4,12,4z M12,14c-2.5,0-4.5-2-4.5-4.5
	S9.5,5,12,5s4.5,2,4.5,4.5S14.5,14,12,14z"/>
</svg>
