<?xml version="1.0" encoding="utf-8"?>
<!-- Generator: Adobe Illustrator 21.0.2, SVG Export Plug-In . SVG Version: 6.00 Build 0)  -->
<svg version="1.1" id="Camada_1" xmlns="http://www.w3.org/2000/svg" xmlns:xlink="http://www.w3.org/1999/xlink" x="0px" y="0px"
	 viewBox="0 0 24 24" style="enable-background:new 0 0 24 24;" xml:space="preserve">
<g>
	<path d="M21.5,7h-19C1.1,7,0,8.1,0,9.5v6C0,16.9,1.1,18,2.5,18H5v4.5C5,22.8,5.2,23,5.5,23h13c0.3,0,0.5-0.2,0.5-0.5V18h2.5
		c1.4,0,2.5-1.1,2.5-2.5v-6C24,8.1,22.9,7,21.5,7z M18,22H6v-7h12V22z M23,15.5c0,0.8-0.7,1.5-1.5,1.5H19v-2.5
		c0-0.3-0.2-0.5-0.5-0.5h-13C5.2,14,5,14.2,5,14.5V17H2.5C1.7,17,1,16.3,1,15.5v-6C1,8.7,1.7,8,2.5,8h19C22.3,8,23,8.7,23,9.5V15.5z
		"/>
	<path d="M5.5,6C5.8,6,6,5.8,6,5.5V2h9v2.5C15,4.8,15.2,5,15.5,5H18v0.5C18,5.8,18.2,6,18.5,6S19,5.8,19,5.5v-1c0-0.1,0-0.1,0-0.2
		c0-0.1-0.1-0.1-0.1-0.2l-3-3c0,0-0.1-0.1-0.2-0.1c-0.1,0-0.1,0-0.2,0h-10C5.2,1,5,1.2,5,1.5v4C5,5.8,5.2,6,5.5,6z M16,2.7L17.3,4
		H16V2.7z"/>
	<path d="M3.5,9C2.7,9,2,9.7,2,10.5S2.7,12,3.5,12S5,11.3,5,10.5S4.3,9,3.5,9z M3.5,11C3.2,11,3,10.8,3,10.5S3.2,10,3.5,10
		S4,10.2,4,10.5S3.8,11,3.5,11z"/>
	<path d="M16.5,16h-9C7.2,16,7,16.2,7,16.5S7.2,17,7.5,17h9c0.3,0,0.5-0.2,0.5-0.5S16.8,16,16.5,16z"/>
	<path d="M16.5,18h-9C7.2,18,7,18.2,7,18.5S7.2,19,7.5,19h9c0.3,0,0.5-0.2,0.5-0.5S16.8,18,16.5,18z"/>
	<path d="M16.5,20h-9C7.2,20,7,20.2,7,20.5S7.2,21,7.5,21h9c0.3,0,0.5-0.2,0.5-0.5S16.8,20,16.5,20z"/>
</g>
</svg>
