<?xml version="1.0" encoding="utf-8"?>
<!-- Generator: Adobe Illustrator 22.1.0, SVG Export Plug-In . SVG Version: 6.00 Build 0)  -->
<svg version="1.1" id="Layer_1" xmlns="http://www.w3.org/2000/svg" xmlns:xlink="http://www.w3.org/1999/xlink" x="0px" y="0px"
	 viewBox="0 0 24 24" style="enable-background:new 0 0 24 24;" xml:space="preserve">
<path d="M9.5,18H1V8h19v2c0,0.3,0.2,0.5,0.5,0.5S21,10.3,21,10V2.5C21,2.2,20.8,2,20.5,2H17V0.5C17,0.2,16.8,0,16.5,0h-3
	C13.2,0,13,0.2,13,0.5V2H8V0.5C8,0.2,7.8,0,7.5,0h-3C4.2,0,4,0.2,4,0.5V2H0.5C0.2,2,0,2.2,0,2.5v16C0,18.8,0.2,19,0.5,19h9
	c0.3,0,0.5-0.2,0.5-0.5S9.8,18,9.5,18z M14,1h2v3h-2V1z M5,1h2v3H5V1z M1,3h3v1.5C4,4.8,4.2,5,4.5,5h3C7.8,5,8,4.8,8,4.5V3h5v1.5
	C13,4.8,13.2,5,13.5,5h3C16.8,5,17,4.8,17,4.5V3h3v4H1V3z M17.5,11c-3.6,0-6.5,2.9-6.5,6.5s2.9,6.5,6.5,6.5s6.5-2.9,6.5-6.5
	S21.1,11,17.5,11z M17.5,23c-3,0-5.5-2.5-5.5-5.5s2.5-5.5,5.5-5.5s5.5,2.5,5.5,5.5S20.5,23,17.5,23z M20,18h-2v-3
	c0-0.3-0.2-0.5-0.5-0.5S17,14.7,17,15v3.5c0,0.3,0.2,0.5,0.5,0.5H20c0.3,0,0.5-0.2,0.5-0.5S20.3,18,20,18z"/>
</svg>
