<?xml version="1.0" encoding="utf-8"?>
<!-- Generator: Adobe Illustrator 22.1.0, SVG Export Plug-In . SVG Version: 6.00 Build 0)  -->
<svg version="1.1" id="Layer_1" xmlns="http://www.w3.org/2000/svg" xmlns:xlink="http://www.w3.org/1999/xlink" x="0px" y="0px"
	 viewBox="0 0 24 24" style="enable-background:new 0 0 24 24;" xml:space="preserve">
<path d="M7.5,14.1C7,14,6.6,13.9,6.1,13.8c-0.1,0-0.2,0-0.3,0l-3.7,1.5L3.4,13c0.1-0.2,0.1-0.5-0.1-0.6C1.8,11.2,1,9.5,1,7.7
	c0-3.5,3.6-6.4,8-6.4s8,2.9,8,6.4c0,0.3,0.2,0.5,0.5,0.5S18,8,18,7.7c0-4.1-4-7.4-9-7.4S0,3.6,0,7.7c0,2,0.9,3.8,2.4,5.2L0.6,16
	c-0.1,0.2-0.1,0.4,0.1,0.6c0.1,0.1,0.2,0.2,0.4,0.2c0.1,0,0.1,0,0.2,0l4.7-2c0.4,0.1,0.9,0.2,1.3,0.3c0.3,0,0.5-0.2,0.6-0.4
	C8,14.4,7.8,14.1,7.5,14.1z M22.1,20.4c1.2-1.1,1.9-2.5,1.9-4.1c0-3.5-3.4-6.5-7.5-6.5S9,12.7,9,16.2c0,2.1,1.2,4.1,3.1,5.4
	c2.1,1.3,4.6,1.6,6.9,0.6l3.8,1.4c0.1,0,0.1,0,0.2,0s0.3-0.1,0.4-0.2c0.1-0.2,0.2-0.4,0.1-0.6L22.1,20.4z M19.2,21.3
	c-0.1,0-0.1,0-0.2,0s-0.1,0-0.2,0c-2,0.9-4.3,0.7-6.2-0.5C11,19.7,10,18,10,16.2c0-3,3-5.5,6.5-5.5s6.5,2.5,6.5,5.5
	c0,1.4-0.6,2.6-1.8,3.6c-0.2,0.1-0.2,0.4-0.1,0.6l0.9,1.9L19.2,21.3z"/>
</svg>
