<?xml version="1.0" encoding="utf-8"?>
<!-- Generator: Adobe Illustrator 23.0.3, SVG Export Plug-In . SVG Version: 6.00 Build 0)  -->
<svg version="1.1" id="Layer_1" xmlns="http://www.w3.org/2000/svg" xmlns:xlink="http://www.w3.org/1999/xlink" x="0px" y="0px"
	 viewBox="0 0 24 24" style="enable-background:new 0 0 24 24;" xml:space="preserve">
<style type="text/css">
	.st0{fill-rule:evenodd;clip-rule:evenodd;fill:#ffffff;}
</style>
<path class="st0" d="M17.7,12L23,6.7V12H17.7z M6.3,6L1,11.3V6H6.3z M18.7,6h3.6l-6,6h-3.6L18.7,6z M12.7,6h4.6l-6,6H6.7L12.7,6z
	 M1.7,12l6-6h3.6l-6,6H1.7z M4.5,2c0-0.6,0.4-1,1-1s1,0.4,1,1s-0.4,1-1,1S4.5,2.6,4.5,2L4.5,2z M17.5,2c0-0.6,0.4-1,1-1s1,0.4,1,1
	s-0.4,1-1,1S17.5,2.6,17.5,2L17.5,2z M23.5,5H19V3.9c0.9-0.2,1.5-1,1.5-1.9c0-1.1-0.9-2-2-2s-2,0.9-2,2c0,0.9,0.6,1.7,1.5,1.9V5H6
	V3.9c0.9-0.2,1.5-1,1.5-1.9c0-1.1-0.9-2-2-2s-2,0.9-2,2c0,0.9,0.6,1.7,1.5,1.9V5H0.5C0.2,5,0,5.2,0,5.5v7C0,12.8,0.2,13,0.5,13H2
	v10.5C2,23.8,2.2,24,2.5,24S3,23.8,3,23.5V13h18v10.5c0,0.3,0.2,0.5,0.5,0.5s0.5-0.2,0.5-0.5V13h1.5c0.3,0,0.5-0.2,0.5-0.5v-7
	C24,5.2,23.8,5,23.5,5L23.5,5z"/>
</svg>
