<?xml version="1.0" encoding="utf-8"?>
<!-- Generator: Adobe Illustrator 22.1.0, SVG Export Plug-In . SVG Version: 6.00 Build 0)  -->
<svg version="1.1" id="Layer_1" xmlns="http://www.w3.org/2000/svg" xmlns:xlink="http://www.w3.org/1999/xlink" x="0px" y="0px"
	 viewBox="0 0 20 20" style="enable-background:new 0 0 20 20;" xml:space="preserve">
<title>icon-relatorios</title>
<desc>Created with Sketch.</desc>
<g id="Page-1">
	<g id="icon-relatorios">
		<path id="Stroke-209" d="M9.2,10.8h7.6c0.2,0,0.4,0.2,0.4,0.4c0,4.6-3.8,8.4-8.4,8.4c-4.6,0-8.4-3.8-8.4-8.4s3.8-8.4,8.4-8.4
			C9,2.8,9.2,3,9.2,3.2V10.8z M1.2,11.2c0,4.2,3.4,7.6,7.6,7.6c4.1,0,7.4-3.2,7.6-7.2H8.8c-0.2,0-0.4-0.2-0.4-0.4V3.6
			C4.4,3.8,1.2,7.1,1.2,11.2z"/>
		<path id="Stroke-210" d="M12.3,8C12.2,8,12,7.8,12,7.7V0.7c0-0.2,0.2-0.3,0.3-0.3c4,0,7.3,3.2,7.3,7.3c0,0.2-0.2,0.3-0.3,0.3H12.3
			z M12.7,7.3h6.2c-0.2-3.4-2.9-6-6.2-6.2V7.3z"/>
	</g>
</g>
</svg>
