<?xml version="1.0" encoding="utf-8"?>
<!-- Generator: Adobe Illustrator 21.0.2, SVG Export Plug-In . SVG Version: 6.00 Build 0)  -->
<svg version="1.1" id="Layer_1" xmlns="http://www.w3.org/2000/svg" xmlns:xlink="http://www.w3.org/1999/xlink" x="0px" y="0px" viewBox="0 0 20 36">
    <path d="M17.9996 36C17.4876 36 16.9757 35.804 16.5857 35.414L0.586471 19.4142C-0.19549 18.6322 -0.19549 17.3683 0.586471 16.5863L16.5857 0.586492C17.3676 -0.195497 18.6316 -0.195497 19.4135 0.586492C20.1955 1.36848 20.1955 2.63246 19.4135 3.41445L4.82826 18.0002L19.4135 32.586C20.1955 33.368 20.1955 34.632 19.4135 35.414C19.0235 35.804 18.5116 36 17.9996 36Z" />
</svg>
