<?xml version="1.0" encoding="utf-8"?>
<!-- Generator: Adobe Illustrator 22.1.0, SVG Export Plug-In . SVG Version: 6.00 Build 0)  -->
<svg version="1.1" id="Layer_1" xmlns="http://www.w3.org/2000/svg" xmlns:xlink="http://www.w3.org/1999/xlink" x="0px" y="0px"
	 viewBox="0 0 24 24" style="enable-background:new 0 0 24 24;" xml:space="preserve">
<path d="M14,11c-0.6,0-1,0.4-1,1c0,0.6-0.4,1-1,1s-1-0.4-1-1s0.4-1,1-1c0.6,0,1-0.4,1-1s-0.4-1-1-1c-1.7,0-3,1.3-3,3s1.3,3,3,3
	s3-1.3,3-3C15,11.4,14.6,11,14,11z M12,16c-3.5,0-6.4-2-7.8-4c1.4-2,4.3-4,7.8-4s6.4,2,7.8,4C18.4,14,15.5,16,12,16z M21.9,11.5
	C20.3,8.8,16.6,6,12,6s-8.3,2.8-9.9,5.5c-0.2,0.3-0.2,0.7,0,1C3.7,15.2,7.4,18,12,18s8.3-2.8,9.9-5.5C22,12.2,22,11.8,21.9,11.5z"/>
</svg>
