<?xml version="1.0" encoding="utf-8"?>
<!-- Generator: Adobe Illustrator 21.0.2, SVG Export Plug-In . SVG Version: 6.00 Build 0)  -->
<svg version="1.1" id="Layer_1" xmlns="http://www.w3.org/2000/svg" xmlns:xlink="http://www.w3.org/1999/xlink" x="0px" y="0px"
	 viewBox="0 0 24 24" style="enable-background:new 0 0 24 24;" xml:space="preserve">
<style type="text/css">
	.st0{fill:#FFFFFF;}
	.st1{fill:#696977;}
	.st2{opacity:0.1;enable-background:new    ;}
</style>
<path class="st0" d="M13,3c0,0-5,3-4.9,2.7L4,8l5,14l13-7L13,3z"/>
<path class="st1" d="M12,0C5.4,0,0,5.4,0,12s5.4,12,12,12s12-5.4,12-12S18.6,0,12,0z M17.9,11l-2.7,2.6l0.6,3.6c0,0.1,0,0.3-0.1,0.4
	s-0.3,0.1-0.4,0L12,15.9l-3.3,1.7c-0.1,0-0.1,0-0.2,0c-0.1,0-0.2,0-0.2-0.1c-0.1-0.1-0.2-0.2-0.1-0.4l0.6-3.6l-2.7-2.6
	C6,10.9,6,10.8,6,10.6c0-0.1,0.2-0.2,0.3-0.3L10,9.8l1.7-3.3c0.1-0.3,0.5-0.3,0.7,0L14,9.8l3.7,0.5c0.1,0,0.3,0.1,0.3,0.3
	S18,10.9,17.9,11z"/>
<path class="st2" d="M12,0v24c6.6,0,12-5.4,12-12S18.6,0,12,0z"/>
</svg>
