<?xml version="1.0" encoding="utf-8"?>
<!-- Generator: Adobe Illustrator 21.0.2, SVG Export Plug-In . SVG Version: 6.00 Build 0)  -->
<svg version="1.0" id="Layer_1" xmlns="http://www.w3.org/2000/svg" xmlns:xlink="http://www.w3.org/1999/xlink" x="0px" y="0px" viewBox="0 0 18 18">
	<path class="st0" d="M16,13c0,1.7-1.3,3-3,3H5c-1.7,0-3-1.3-3-3V5c0-1.7,1.3-3,3-3h8c1.7,0,3,1.3,3,3V13z M13,0H5C2.2,0,0,2.2,0,5v8 c0,2.8,2.2,5,5,5h8c2.8,0,5-2.2,5-5V5C18,2.2,15.8,0,13,0z M9,12c-1.7,0-3-1.3-3-3s1.3-3,3-3s3,1.3,3,3S10.7,12,9,12z M9,4 C6.2,4,4,6.2,4,9s2.2,5,5,5s5-2.2,5-5S11.8,4,9,4z M13,4c0-0.6,0.4-1,1-1s1,0.4,1,1s-0.4,1-1,1S13,4.6,13,4z" />
</svg>
