<?xml version="1.0" encoding="UTF-8"?>
<svg viewBox="0 0 28 28" version="1.1" xmlns="http://www.w3.org/2000/svg" xmlns:xlink="http://www.w3.org/1999/xlink">
    <path d="M11,20 L19,13.5 L11,7 L11,20 Z M14,0 C6.3,0 0,6.3 0,14 C0,21.7 6.3,28 14,28 C21.7,28 28,21.7 28,14 C28,6.3 21.7,0 14,0 Z M14,25 C7.95,25 3,20.05 3,14 C3,7.95 7.95,3 14,3 C20.05,3 25,7.95 25,14 C25,20.05 20.05,25 14,25 Z" />
</svg>