<?xml version="1.0" encoding="utf-8"?>
<!-- Generator: Adobe Illustrator 22.1.0, SVG Export Plug-In . SVG Version: 6.00 Build 0)  -->
<svg version="1.1" id="Layer_1" xmlns="http://www.w3.org/2000/svg" xmlns:xlink="http://www.w3.org/1999/xlink" x="0px" y="0px"
	 viewBox="0 0 20 20" style="enable-background:new 0 0 20 20;" xml:space="preserve">
<style>
    path{fill: #FFFFFF;}
</style>
<path id="path-1" d="M16.7,18.8l-6.4-4.2c-0.1,0-0.1-0.1-0.2-0.1s-0.2,0-0.2,0.1l-6.4,4.2v-18h13.3V18.8z M17.1,0H2.9
	C2.7,0,2.5,0.2,2.5,0.4v19.2c0,0.2,0.1,0.3,0.2,0.4s0.3,0.1,0.4,0l6.9-4.4l6.9,4.4c0.1,0,0.1,0.1,0.2,0.1c0.1,0,0.1,0,0.2-0.1
	c0.1-0.1,0.2-0.2,0.2-0.4V0.4C17.5,0.2,17.3,0,17.1,0L17.1,0z M8.8,7.5c0.2,0,0.3-0.1,0.4-0.3L10,4.9l0.9,2.3
	c0.1,0.2,0.2,0.3,0.4,0.3h2.2l-1.6,1.3c-0.1,0.1-0.2,0.3-0.1,0.4l0.6,2.2l-2-1.4C10.2,10,10.1,10,10,10s-0.2,0-0.2,0.1l-2,1.4
	l0.6-2.2c0-0.2,0-0.3-0.1-0.4L6.6,7.5H8.8z M7.5,9.3l-0.8,3.1c0,0.2,0,0.3,0.2,0.4c0.1,0.1,0.3,0.1,0.5,0l2.7-1.9l2.7,1.9
	c0.1,0.1,0.2,0.1,0.2,0.1c0.1,0,0.2,0,0.2-0.1c0.1-0.1,0.2-0.3,0.2-0.4l-0.8-3.1l2.3-1.9C15,7.3,15,7.1,15,6.9
	c-0.1-0.2-0.2-0.3-0.4-0.3h-3l-1.1-3.1c-0.1-0.3-0.7-0.3-0.8,0L8.5,6.7h-3C5.2,6.7,5.1,6.8,5,6.9C5,7.1,5,7.3,5.2,7.4L7.5,9.3z"/>
</svg>
