<?xml version="1.0" encoding="utf-8"?>
<!-- Generator: Adobe Illustrator 22.1.0, SVG Export Plug-In . SVG Version: 6.00 Build 0)  -->
<svg version="1.1" id="Layer_1" xmlns="http://www.w3.org/2000/svg" xmlns:xlink="http://www.w3.org/1999/xlink" x="0px" y="0px"
	 viewBox="0 0 20.1 20.1" style="enable-background:new 0 0 20.1 20.1;" xml:space="preserve">
<style>
    path{fill: #FFFFFF;}
</style>
<path d="M10.1,1C5.1,1,1,5.1,1,10.1s4.1,9.1,9.1,9.1s9.1-4.1,9.1-9.1S15.1,1,10.1,1z M10.1,18.5c-4.6,0-8.4-3.7-8.4-8.4
	c0-4.6,3.7-8.4,8.4-8.4s8.4,3.7,8.4,8.4C18.5,14.7,14.7,18.5,10.1,18.5z M11.6,9.9c0.5-0.4,0.8-1.1,0.8-1.8c0-1.3-1-2.3-2.3-2.3
	s-2.3,1-2.3,2.3c0,0.7,0.3,1.3,0.8,1.8c-1.6,0.6-2.8,2.2-2.8,4c0,0.2,0.2,0.4,0.4,0.4h7.7c0.2,0,0.4-0.2,0.4-0.4
	C14.3,12.1,13.2,10.5,11.6,9.9z M8.5,8.1c0-0.9,0.7-1.6,1.6-1.6s1.6,0.7,1.6,1.6c0,0.7-0.5,1.3-1.2,1.5c-0.1,0-0.3,0-0.4,0
	c-0.1,0-0.3,0-0.4,0C9,9.5,8.5,8.9,8.5,8.1z M6.6,13.5c0.2-1.6,1.4-2.9,3-3.1c0.2,0,0.3,0.1,0.5,0.1s0.3,0,0.5-0.1
	c1.5,0.2,2.7,1.5,2.9,3.1H6.6z"/>
</svg>
