<?xml version="1.0" encoding="utf-8"?>
<!-- Generator: Adobe Illustrator 22.1.0, SVG Export Plug-In . SVG Version: 6.00 Build 0)  -->
<svg version="1.1" id="Layer_1" xmlns="http://www.w3.org/2000/svg" xmlns:xlink="http://www.w3.org/1999/xlink" x="0px" y="0px"
	 viewBox="0 0 77 77" style="enable-background:new 0 0 77 77;" xml:space="preserve">
<style type="text/css">
	.st0{fill:#EC0928;}
	.st1{fill:#FFFFFF;}
</style>
<circle class="st0" cx="38.5" cy="38.5" r="37.6"/>
<path class="st1" d="M59.6,53.9c0,1.5-1.3,2.7-2.7,2.7c-1.5,0-2.7-1.3-2.7-2.7V42.7c0-0.8-0.7-1.5-1.5-1.5H42.6
	c-0.8,0-1.5,0.7-1.5,1.5v11.2c0,1.5-1.3,2.7-2.7,2.7c-1.5,0-2.7-1.3-2.7-2.7V42.7c0-0.8-0.7-1.5-1.5-1.5H24.1
	c-0.8,0-1.5,0.7-1.5,1.5v11.2c0,1.5-1.3,2.7-2.7,2.7c-1.5,0-2.7-1.3-2.7-2.7V23c0-1.5,1.3-2.7,2.7-2.7c1.5,0,2.7,1.3,2.7,2.7v11.2
	c0,0.8,0.7,1.5,1.5,1.5h10.2c0.8,0,1.5-0.7,1.5-1.5V23c0-1.5,1.3-2.7,2.7-2.7s2.7,1.3,2.7,2.7v11.2c0,0.8,0.7,1.5,1.5,1.5h10.1
	c0.8,0,1.5-0.7,1.5-1.5V23c0-1.5,1.3-2.7,2.7-2.7s2.7,1.3,2.6,2.7C59.6,23,59.6,53.9,59.6,53.9z"/>
</svg>
